How Does the Marital Status of One's Parents Affect Their Feelings Towards Teachers in America
…
Gov 50 Final Project, Fall Semester 2023

  Luca Ace-Nasteski, Harvard College

library(tidyverse)
library(ggplot2)
library(haven)
library(dplyr)
library(modelsummary)

wave28 <- read_sav("wave28.sav")

wave28

# A tibble: 4,971 × 139
     QKEY Device_Type_W28  LANGUAGE_W28 FORM_W28   EXPECTLIFE_W28     
    <dbl> <dbl+lbl>        <dbl+lbl>    <dbl+lbl>  <dbl+lbl>          
 1 100197 2 [Tablet]       9 [English]  2 [FORM 2] 1 [Better than you…
 2 100252 1 [Mobile phone] 9 [English]  2 [FORM 2] 1 [Better than you…
 3 100260 2 [Tablet]       9 [English]  1 [FORM 1] 3 [About as you ex…
 4 100314 1 [Mobile phone] 9 [English]  1 [FORM 1] 1 [Better than you…
 5 100363 1 [Mobile phone] 9 [English]  1 [FORM 1] 1 [Better than you…
 6 100446 3 [Desktop]      9 [English]  2 [FORM 2] 3 [About as you ex…
 7 100514 3 [Desktop]      9 [English]  2 [FORM 2] 1 [Better than you…
 8 100588 1 [Mobile phone] 9 [English]  1 [FORM 1] 2 [Worse than you …
 9 100598 3 [Desktop]      9 [English]  1 [FORM 1] 2 [Worse than you …
10 100604 1 [Mobile phone] 9 [English]  1 [FORM 1] 3 [About as you ex…
# ℹ 4,961 more rows
# ℹ 134 more variables: SATLIFEA_W28 <dbl+lbl>,
#   SATLIFEB_W28 <dbl+lbl>, SATLIFEC_W28 <dbl+lbl>,
#   SATLIFED_W28 <dbl+lbl>, HLTHRATE_W28 <dbl+lbl>,
#   POL1DT_W28 <dbl+lbl>, POL1DTSTR_W28 <dbl+lbl>,
#   FAM1_W28 <dbl+lbl>, FAM2_W28 <dbl+lbl>,
#   NEWS_PLATFORMA_W28 <dbl+lbl>, NEWS_PLATFORMB_W28 <dbl+lbl>, …
…
